// 数字はすべてさいころの目として呼んでしまうので気をつけてください
// 数字はすべて半角で入力してください
// カンマは便宜上入れているだけで、スペースでもタブでも何でも良いです。
// 株あり用の出目テーブル

1,3,1
5,4,6
1,1,5,5
5,6,2,1
2,2,5,5
4,1,1
4,2,6
2,3,1
6,4,2,3
4,5,4
4,4,3
3,4,3
1,6,3
4,1,2
5,3,5
2
